/Users/BrotherChun/Documents/workspace/baccarats/src/main/java/com/feedzai/chunyang/baccarats/Coups.java
/Users/BrotherChun/Documents/workspace/baccarats/src/main/java/com/feedzai/chunyang/baccarats/Shoe.java
/Users/BrotherChun/Documents/workspace/baccarats/src/main/java/com/feedzai/chunyang/baccarats/Percentage.java
/Users/BrotherChun/Documents/workspace/baccarats/src/main/java/com/feedzai/chunyang/baccarats/Card.java
/Users/BrotherChun/Documents/workspace/baccarats/src/main/java/com/feedzai/chunyang/baccarats/Rules.java
